…
This is what the data looks like.

``` r
imr_saod
```

    ## # A tibble: 2,168,028 x 9
    ##    country cluster_id cluster_lat cluster_lon child_birth_year   IMR     n
    ##    <chr>   <chr>            <dbl>       <dbl>            <dbl> <dbl> <int>
    ##  1 Albania AL2008_1          40.8        19.8             1987     0     1
    ##  2 Albania AL2008_1          40.8        19.8             1988     0     1
    ##  3 Albania AL2008_1          40.8        19.8             1989     0     3
    ##  4 Albania AL2008_1          40.8        19.8             1990     0     1
    ##  5 Albania AL2008_1          40.8        19.8             1991     0     2
    ##  6 Albania AL2008_1          40.8        19.8             1993   500     2
    ##  7 Albania AL2008_1          40.8        19.8             1994     0     4
    ##  8 Albania AL2008_1          40.8        19.8             1995     0     3
    ##  9 Albania AL2008_1          40.8        19.8             1996     0     3
    ## 10 Albania AL2008_1          40.8        19.8             1997     0     1
    ## # … with 2,168,018 more rows, and 2 more variables: tropical <chr>, saod <dbl>
…
